「いつ来ても
学者たちは
地殻内で
２４時間
８級と
静岡県は
震度６弱以上の
想定しなればならない。
新潟県中越地震の
１０年を
私たちの
翻弄され、
耐震化が
犠牲者が
遮断される。
１０メートルもの
６弱を
県内の
９５％の
１０倍以上の
３倍以上もの
海溝型の
活断層型である
新潟県中越地震と
約３０倍。
阪神級の
１〜３分も
県内全域で
分断され、
破壊され、
近隣県も
局地的な
本質的に
災害ボランティアコーディネーター県協議会の
実践的な
暮らし方に
想像しない。
耐震化と
８１年以前の
第３次被害想定の
被災者数の
３日分の
３日分の
１５０年以上が
６０〜１５０年と
第３次地震被害想定を
最多になるのは
５時。
在宅率の
戦時下の
４４年
１２月
７日
１時半過ぎ。
三川村の
２年だった
池野美弘さんは
県内の
死者・行方不明者
２９５人、
負傷者
８４３人、
住家全壊
記録されているが、
三重県の
百人を
形成された
池野さんの
１週間以上
被災者
５３人の
９９年に
同級生らとともに
子どもたちに
何日
鈴木いつ子さんは
２階に
１０日の
５０センチほどの
大工さんとともに
１カ月以上の
おんぶしていないと
逃げることもできないし、
同市月見町の
鈴木朝子さん。
「チエちゃん」を
チエちゃんが
１年後、
チエちゃんと
３年後。
精神的な
被災者の
１０万キロワットの
約１００年
放出される
１カ所の
２カ所の
３カ所に
確立されている。
加速度的な
数分前に
科学的には
２日前に
１００〜１５０年
海溝型の
巨大地震だけでなく、
新潟県中越地震のような
内陸型地震も
頻発している。
世界的にも
期待している。
新潟県中越地震の
県内の
湖西市の
前田展雄さんは
８割を
耐震化が
公開されている。
被災者の
１００〜１５０年
Ｍ８級の
浜名湖近くの
１００戸中
８０戸が
２万人余り、
３２時間後に
連続しておき、
約千人。
１メートル前後も
県内の
静岡県海岸にも
約２メートル、
７０メートルの
走行中の
４５両が
１５０メートルに
２５戸、
３２戸と、
３６％の
袋井市上山梨
上町の
一時、
８３年以来
２１年ぶり。
３１日、
３時半ごろには、
管内の
２１２台の
買い物客らが
３号線の
奈良市の
殺害された
逮捕された
奈良県三郷町勢野東
１丁目、
小林薫容疑者が
供述している
帰宅後に
小林容疑者が
１１月
１７日
１時
５０分ごろ、
下校中に
約１００メートルの
目撃された。
２時半に
約束しており、
小林容疑者は
供述している
連れ去られたのと
往復していた
小林容疑者が
奈良市の
小林容疑者の
押収していた
殺害された
室内の
酷似している
小林容疑者が
小林容疑者宅は
２階の
６畳の
３０日の
柄入りの
１１月
１７日
８時すぎ、
送信され、
３０日の
写っていたのと
白っぽい
小林容疑者宅の
室内の
小林容疑者宅の
約１００本の
約１００枚などを
０５年の
０６年
「レームダック」化が
０４年の
１年間で
郵政民営化や
４割以上に
０５年の
０４年の
平均支持率は
４割台後半を
平均支持率
３９％、
不支持率
４４％と、
平均内閣支持率は
１年を
７〜８割と
０１年
内閣発足時から
１年
内閣支持率は
６１％→
３７％→
３３％、
６４％→
３６％→
２７％と
参院選後は
２５％、
１７％まで
７割
３割未満、
２割程度――。
参院選後に
３割台に
秋以降
４割から
５割台を
存在していると
