\relax 
\citation{bib}
\bibcite{bib}{1}
\@writefile{toc}{\contentsline {section}{\numberline {1}クイックソートとは}{}}
\@writefile{toc}{\contentsline {section}{\numberline {2}アルゴリズム}{}}
\@writefile{lof}{\contentsline {figure}{\numberline {1}{\ignorespaces クイックソートの図}}{}}
\newlabel{zu}{{1}{}}
\@writefile{toc}{\contentsline {section}{\numberline {3}平均計算量}{}}
\@writefile{lot}{\contentsline {table}{\numberline {1}{\ignorespaces 入力と計算量の関係}}{}}
\@writefile{toc}{\contentsline {section}{\numberline {4}コード}{}}
